{
    "FAILOVER": {
        "summary": "Forces a Redict Sentinel failover.",
        "group": "sentinel",
        "since": "2.8.4",
        "arity": 3,
        "container": "SENTINEL",
        "function": "sentinelCommand",
        "command_flags": [
            "ADMIN",
            "SENTINEL",
            "ONLY_SENTINEL"
        ],
        "reply_schema": {
            "const": "OK",
            "description": "Force a fail over as if the master was not reachable, and without asking for agreement to other Sentinels."
        },
        "arguments": [
            {
                "name": "master-name",
                "type": "string"
            }
        ]
    }
}
